{
	"name": "Python Reprojector",
	"build": {
		"context": "..",
		"dockerfile": "./Dockerfile"
	},
	"workspaceMount": "source=${localWorkspaceFolder},target=/home/vscode,type=bind",
	"workspaceFolder": "/home/vscode",
	"remoteUser": "vscode",
	"customizations": {
		"vscode": {
			"extensions": [
				"ms-python.python",
    		"ms-python.vscode-pylance",
    		"ms-azuretools.vscode-docker",
    		"ms-vscode.makefile-tools"
			]
		}
	}
}
